{
  "name": "",
  "isOrdered": true,
  "folders": {
    "01": {
      "name": "01",
      "isOrdered": true,
      "folders": {
        "docs": {
          "name": "docs",
          "isOrdered": true,
          "folders": {},
          "files": {}
        },
        "kubectl": {
          "name": "kubectl",
          "isOrdered": true,
          "folders": {},
          "files": {}
        },
        "rancher": {
          "name": "rancher",
          "isOrdered": true,
          "folders": {},
          "files": {}
        },
        "web_ui_(kubernetes-dashboard)": {
          "name": "web_ui_(kubernetes-dashboard)",
          "isOrdered": true,
          "folders": {},
          "files": {}
        }
      },
      "files": {}
    },
    "02": {
      "name": "02",
      "isOrdered": true,
      "folders": {
        "docs": {
          "name": "docs",
          "isOrdered": true,
          "folders": {},
          "files": {
            "kube.cluster": 0,
            "kube": 1
          }
        },
        "test-app": {
          "name": "test-app",
          "isOrdered": true,
          "folders": {},
          "files": {}
        }
      },
      "files": {}
    }
  },
  "files": {}
}